<svg width="48" height="48" viewBox="0 0 48 48" fill="none" xmlns="http://www.w3.org/2000/svg">
<path d="M12.3584 10.2505C11.4582 9.32007 10.2178 8.79637 8.92319 8.80007H8.67679C7.38349 8.79747 6.14489 9.32107 5.24559 10.2505C4.3996 11.1203 3.9504 12.3008 4.004 13.5129L4.0976 15.6665C4.2394 18.1309 6.30149 20.0437 8.76959 20.0001H8.83039C11.2985 20.0437 13.3606 18.1309 13.5024 15.6665L13.6 13.5129C13.6536 12.3008 13.2044 11.1203 12.3584 10.2505ZM11.904 15.6001C11.7956 17.2064 10.4398 18.4415 8.83039 18.4001H8.76959C7.16019 18.4415 5.80439 17.2064 5.69599 15.6001L5.66799 14.9465C7.19299 14.8786 8.65729 14.3291 9.85039 13.3769C10.3424 14.1045 11.0851 14.6254 11.9368 14.8401L11.904 15.6001ZM10.9008 11.8185C10.8563 11.4773 10.5985 11.2028 10.2608 11.1369C9.92429 11.0673 9.58129 11.2223 9.41119 11.5209C9.40079 11.5377 8.40799 13.1081 5.60639 13.3481C5.59949 12.6069 5.88459 11.8928 6.39999 11.3601C6.99729 10.7446 7.81909 10.3981 8.67679 10.4001H8.92319C9.78089 10.3981 10.6027 10.7446 11.2 11.3601C11.6667 11.8464 11.9437 12.4839 11.9808 13.1569C11.4272 12.9095 11.0256 12.4119 10.9008 11.8185Z" fill="#DD3800"/>
<path d="M43.5584 29.4504C42.6582 28.52 41.4178 27.9963 40.1232 28H39.8768C38.5835 27.9974 37.3449 28.521 36.4456 29.4504C35.5996 30.3202 35.1503 31.5007 35.204 32.7128L35.2976 34.8664C35.4394 37.3308 37.5015 39.2436 39.9696 39.2H40.0304C42.4984 39.2436 44.5605 37.3308 44.7023 34.8664L44.7999 32.7128C44.8535 31.5007 44.4044 30.3202 43.5584 29.4504ZM43.2 32.648L43.104 34.8C42.9956 36.4063 41.6398 37.6414 40.0304 37.6H39.9696C38.3602 37.6414 37.0044 36.4063 36.896 34.8L36.8 32.644C36.7691 31.8689 37.0584 31.1153 37.6 30.56C38.1973 29.9445 39.0191 29.598 39.8768 29.6H40.1232C40.9809 29.598 41.8027 29.9445 42.4 30.56C42.9426 31.1163 43.232 31.8716 43.2 32.648Z" fill="#DD3800"/>
<path d="M24.7134 11.6344C23.855 10.8041 22.4928 10.8041 21.6344 11.6344L12.7032 20.5656C12.553 20.7158 12.3492 20.8002 12.1368 20.8H3.99999C1.792 20.8026 0.0026 22.592 0 24.8V36C0 37.3255 1.0745 38.4 2.4 38.4C2.6725 38.4 2.943 38.3537 3.2 38.2632V39.2C3.2 39.6418 3.5582 40 3.99999 40H13.6C14.0418 40 14.4 39.6418 14.4 39.2V26.2288C14.3999 26.0264 14.4765 25.8314 14.6144 25.6832L24.7656 14.7656C25.6159 13.8866 25.5925 12.4847 24.7134 11.6344ZM23.6231 13.6469C23.6202 13.6497 23.6173 13.6525 23.6144 13.6552L13.44 24.5944C13.028 25.0389 12.7993 25.6227 12.8 26.2288V38.4H4.79999V26.4C4.79999 25.9582 4.44179 25.6 3.99999 25.6C3.5582 25.6 3.2 25.9582 3.2 26.4V36C3.2 36.4418 2.8418 36.8 2.4 36.8C1.9582 36.8 1.6 36.4418 1.6 36V24.8C1.6 23.4745 2.6745 22.4 3.99999 22.4H12.1368C12.7739 22.402 13.3853 22.1488 13.8344 21.6968L22.7656 12.7656C23.0091 12.5346 23.3909 12.5346 23.6344 12.7656C23.8746 13.0121 23.8696 13.4067 23.6231 13.6469Z" fill="#DD3800"/>
<path d="M8.8 23.2001C8.3582 23.2001 8 23.5583 8 24.0001V33.6001C8 34.0419 8.3582 34.4001 8.8 34.4001C9.2418 34.4001 9.6 34.0419 9.6 33.6001V24.0001C9.6 23.5583 9.2418 23.2001 8.8 23.2001Z" fill="#DD3800"/>
<path d="M25.9544 29.4504C25.0551 28.521 23.8165 27.9974 22.5232 28H22.2768C20.9835 27.9974 19.7449 28.521 18.8456 29.4504C17.9996 30.3202 17.5503 31.5007 17.604 32.7128L17.6976 34.8664C17.8394 37.3308 19.9015 39.2436 22.3696 39.2H22.4304C24.8985 39.2436 26.9606 37.3308 27.1024 34.8664L27.196 32.7128C27.2497 31.5007 26.8004 30.3202 25.9544 29.4504ZM25.6 32.648L25.504 34.8C25.3956 36.4063 24.0398 37.6414 22.4304 37.6H22.3696C20.7602 37.6414 19.4044 36.4063 19.296 34.8L19.2 32.644C19.1691 31.8689 19.4584 31.1153 20 30.56C20.5973 29.9445 21.4191 29.598 22.2768 29.6H22.5232C23.3809 29.598 24.2027 29.9445 24.8 30.56C25.3426 31.1163 25.632 31.8716 25.6 32.648Z" fill="#DD3800"/>
<path d="M26.5335 40H18.2664C16.132 40.0022 14.4022 41.732 14.4 43.8664V47.2C14.4 47.6418 14.7582 48 15.2 48C15.6418 48 16 47.6418 16 47.2V43.8664C16.0013 42.6152 17.0153 41.6013 18.2664 41.6H26.5335C27.7847 41.6013 28.7986 42.6152 28.7999 43.8664V47.2C28.7999 47.6418 29.1581 48 29.5999 48C30.0417 48 30.3999 47.6418 30.3999 47.2V43.8664C30.3977 41.732 28.6679 40.0022 26.5335 40Z" fill="#DD3800"/>
<path d="M44.1335 40H35.8663C33.7319 40.0022 32.0021 41.732 31.9999 43.8664V47.2C31.9999 47.6418 32.3581 48 32.7999 48C33.2417 48 33.5999 47.6418 33.5999 47.2V43.8664C33.6012 42.6152 34.6152 41.6013 35.8663 41.6H44.1335C45.3847 41.6013 46.3986 42.6152 46.3999 43.8664V47.2C46.3999 47.6418 46.7581 48 47.1999 48C47.6417 48 47.9999 47.6418 47.9999 47.2V43.8664C47.9977 41.732 46.2679 40.0022 44.1335 40Z" fill="#DD3800"/>
<path d="M45.6399 0H17.56C16.2463 0.0128 15.1907 1.0863 15.2 2.4V14.4C15.2 14.8418 15.5582 15.2 16 15.2C16.4418 15.2 16.8 14.8418 16.8 14.4V4.8H46.3999V24C46.4102 24.4305 46.0704 24.7882 45.6399 24.8H18.34C17.8982 24.8 17.54 25.1582 17.54 25.6C17.54 26.0418 17.8982 26.4 18.34 26.4H45.6399C46.9536 26.3872 48.0092 25.3137 47.9999 24V2.4C48.0092 1.0863 46.9536 0.0128 45.6399 0ZM46.3999 3.2H16.8V2.4C16.7897 1.9695 17.1295 1.6118 17.56 1.6H45.6399C46.0704 1.6118 46.4102 1.9695 46.3999 2.4V3.2Z" fill="#DD3800"/>
<path d="M44 10.2C43.5582 10.2 43.2 10.5582 43.2 11V22.4C43.2 22.8418 43.5582 23.2 44 23.2C44.4417 23.2 44.7999 22.8418 44.7999 22.4V11C44.7999 10.5582 44.4417 10.2 44 10.2Z" fill="#DD3800"/>
<path d="M40.7999 15.2C40.3581 15.2 39.9999 15.5582 39.9999 16V22.4C39.9999 22.8418 40.3581 23.2 40.7999 23.2C41.2417 23.2 41.5999 22.8418 41.5999 22.4V16C41.5999 15.5582 41.2417 15.2 40.7999 15.2Z" fill="#DD3800"/>
<path d="M37.6 13.6001C37.1582 13.6001 36.8 13.9583 36.8 14.4001V22.4001C36.8 22.8419 37.1582 23.2001 37.6 23.2001C38.0418 23.2001 38.4 22.8419 38.4 22.4001V14.4001C38.4 13.9583 38.0418 13.6001 37.6 13.6001Z" fill="#DD3800"/>
<path d="M34.3999 18.4C33.9581 18.4 33.5999 18.7582 33.5999 19.2V22.4C33.5999 22.8418 33.9581 23.2 34.3999 23.2C34.8417 23.2 35.1999 22.8418 35.1999 22.4V19.2C35.1999 18.7582 34.8417 18.4 34.3999 18.4Z" fill="#DD3800"/>
<path d="M44.4439 6.53436C44.0763 6.28916 43.5795 6.38836 43.3343 6.75596L40.6031 10.852L38.08 8.95996C37.7279 8.69306 37.2261 8.76226 36.9592 9.11436C36.9288 9.15446 36.9023 9.19726 36.88 9.24236L33.7648 15.4736L30.72 17.76C30.3665 18.0251 30.2949 18.5265 30.56 18.88C30.8251 19.2335 31.3265 19.3051 31.68 19.04L34.88 16.64C34.9808 16.5658 35.063 16.4691 35.12 16.3576L37.8904 10.8152L40.32 12.64C40.6733 12.9051 41.1748 12.8336 41.4399 12.4801C41.4488 12.4683 41.4573 12.4562 41.4655 12.444L44.6655 7.64396C44.9107 7.27636 44.8115 6.77956 44.4439 6.53436Z" fill="#DD3800"/>
<path d="M28.7999 6.40002H19.2C18.7582 6.40002 18.4 6.75822 18.4 7.20002C18.4 7.64182 18.7582 8.00002 19.2 8.00002H28.7999C29.2417 8.00002 29.5999 7.64182 29.5999 7.20002C29.5999 6.75822 29.2417 6.40002 28.7999 6.40002Z" fill="#DD3800"/>
<path d="M33.5999 6.40002H32C31.5582 6.40002 31.2 6.75822 31.2 7.20002C31.2 7.64182 31.5582 8.00002 32 8.00002H33.5999C34.0417 8.00002 34.3999 7.64182 34.3999 7.20002C34.3999 6.75822 34.0417 6.40002 33.5999 6.40002Z" fill="#DD3800"/>
</svg>
