<svg width="48" height="48" viewBox="0 0 48 48" fill="none" xmlns="http://www.w3.org/2000/svg">
<path d="M14.1044 29.146C14.8053 28.7936 15.6464 29.0567 16.0194 29.745L18.6668 34.6297C18.8709 35.0061 19.3054 35.1961 19.7215 35.0915C20.1377 34.9867 20.4293 34.6136 20.4293 34.1858V27.0534C20.4292 26.5376 20.0094 26.1194 19.4917 26.1194C18.9739 26.1194 18.5542 26.5377 18.5542 27.0535V30.4903L17.6692 28.8574C16.8102 27.2728 14.8732 26.6666 13.2598 27.478C11.879 28.1722 11.1679 29.7033 11.5306 31.2014L13.2469 38.2898C13.648 39.9468 14.3632 41.4848 15.3726 42.8611L18.7348 47.4457C18.9184 47.696 19.2035 47.8288 19.4925 47.8288C19.6844 47.8288 19.8781 47.7702 20.0449 47.6487C20.4629 47.3443 20.5542 46.7598 20.2487 46.3433L16.8864 41.7587C16.0237 40.5824 15.4125 39.268 15.0697 37.8517L13.3534 30.7632C13.1958 30.1124 13.5047 29.4475 14.1044 29.146Z" fill="#DD3800" fill-opacity="0.6"/>
<path d="M35.2712 25.1642C34.718 25.1642 34.1972 25.3054 33.7431 25.5532C33.2831 24.3591 32.121 23.509 30.7627 23.509C30.1769 23.509 29.6279 23.6678 29.1554 23.9434C28.6505 22.8487 27.5404 22.0863 26.2543 22.0863C25.7848 22.0863 25.3392 22.1885 24.9375 22.3706V17.9043C24.9375 16.1507 23.5058 14.724 21.7458 14.724C19.9858 14.724 18.5541 16.1506 18.5541 17.9043V19.5236C18.5541 20.0394 18.9738 20.4577 19.4916 20.4577C20.0094 20.4577 20.4291 20.0394 20.4291 19.5236V17.9044C20.4291 17.181 21.0198 16.5924 21.7458 16.5924C22.4718 16.5924 23.0625 17.181 23.0625 17.9044V31.086C23.0625 31.6018 23.4822 32.0201 24 32.0201C24.5178 32.0201 24.9375 31.6018 24.9375 31.086V25.2665C24.9375 24.5431 25.5282 23.9545 26.2543 23.9545C26.9803 23.9545 27.571 24.5431 27.571 25.2665V31.086C27.571 31.6018 27.9907 32.0201 28.5085 32.0201C29.0263 32.0201 29.446 31.6018 29.446 31.086V26.6893C29.446 25.9658 30.0366 25.3772 30.7627 25.3772C31.4888 25.3772 32.0794 25.9658 32.0794 26.6893V31.086C32.0794 31.6018 32.4991 32.0201 33.0169 32.0201C33.5347 32.0201 33.9544 31.6018 33.9544 31.086V28.3443C33.9544 27.6209 34.5451 27.0323 35.2711 27.0323C35.9971 27.0323 36.5879 27.6209 36.5879 28.3443V36.2266C36.5879 38.327 36.268 40.4083 35.6372 42.4124L34.3148 46.6144C34.1599 47.1067 34.4348 47.631 34.9289 47.7853C35.0222 47.8146 35.1166 47.8284 35.2096 47.8284C35.6085 47.8283 35.9783 47.5727 36.1039 47.1734L37.4264 42.9714C38.1141 40.7861 38.4629 38.5167 38.4629 36.2266V28.3443C38.463 26.5909 37.0312 25.1642 35.2712 25.1642Z" fill="#DD3800" fill-opacity="0.6"/>
<path d="M47.9215 4.95373C47.7343 4.38025 47.246 3.97025 46.647 3.88365L43.7756 3.4688L42.4907 0.87633C42.2229 0.335735 41.6806 0 41.0756 0C41.0755 0 41.0754 0 41.0753 0C40.47 9.34155e-05 39.9278 0.336202 39.6601 0.877078L38.3767 3.4701L35.5054 3.88664C34.9065 3.97352 34.4183 4.3838 34.2316 4.95746C34.0447 5.53104 34.198 6.1487 34.6314 6.56944L36.7098 8.58703L36.22 11.4368C36.1179 12.0312 36.3587 12.6205 36.8483 12.9748C37.1249 13.1749 37.4484 13.2765 37.7741 13.2765C38.0251 13.2765 38.2774 13.2161 38.5104 13.094L41.0784 11.7479L43.647 13.0927C44.1827 13.3734 44.8196 13.3272 45.3091 12.9725C45.7986 12.6179 46.0391 12.0285 45.9365 11.4341L45.4452 8.58469L47.5225 6.56608C47.9557 6.14496 48.1086 5.52711 47.9215 4.95373ZM44.0246 7.35563C43.6525 7.71705 43.483 8.23756 43.571 8.7478L43.9869 11.1601L41.8124 10.0217C41.3524 9.78069 40.8032 9.78097 40.3434 10.022L38.1695 11.1616L38.5841 8.74892C38.6717 8.23868 38.5019 7.71845 38.1297 7.35712L36.3702 5.64911L38.8012 5.29656C39.3152 5.22192 39.7594 4.9002 39.9892 4.43583L41.0757 2.24076L42.1634 4.43518C42.3935 4.89945 42.8378 5.2209 43.3521 5.29535L45.783 5.64668L44.0246 7.35563Z" fill="#DD3800" fill-opacity="0.6"/>
<path d="M30.8448 4.95373C30.6577 4.38025 30.1694 3.97016 29.5705 3.88365L26.699 3.4688L25.4141 0.87633C25.1462 0.335735 24.604 0 23.999 0C23.9989 0 23.9987 0 23.9985 0C23.3934 9.34155e-05 22.8511 0.336202 22.5834 0.877078L21.3 3.4701L18.4287 3.88664C17.8298 3.97352 17.3417 4.3838 17.1549 4.95746C16.9681 5.53104 17.1214 6.1487 17.5548 6.56944L19.633 8.58693L19.1433 11.4367C19.0412 12.0311 19.2819 12.6204 19.7716 12.9747C20.0482 13.1748 20.3717 13.2764 20.6974 13.2764C20.9483 13.2764 21.2006 13.216 21.4337 13.094L24.0017 11.7479L26.5704 13.0926C27.106 13.3733 27.743 13.3271 28.2325 12.9724C28.7219 12.6178 28.9624 12.0285 28.8598 11.4341L28.3686 8.5846L30.4458 6.56599C30.879 6.14496 31.0319 5.5272 30.8448 4.95373ZM26.948 7.35563C26.576 7.71696 26.4065 8.23737 26.4944 8.7478L26.9103 11.1601L24.7359 10.0217C24.2757 9.78078 23.7264 9.78088 23.2668 10.022L21.0928 11.1616L21.5075 8.74892C21.595 8.23859 21.4253 7.71836 21.0531 7.35712L19.2937 5.64911L21.7245 5.29656C22.2385 5.22192 22.6827 4.9002 22.9126 4.43583L23.9992 2.24066L25.0869 4.43518C25.3168 4.89936 25.7611 5.2209 26.2755 5.29535L28.7065 5.64668L26.948 7.35563Z" fill="#DD3800" fill-opacity="0.6"/>
<path d="M13.7682 4.95373C13.5811 4.38025 13.0927 3.97025 12.4937 3.88365L9.62227 3.4688L8.33751 0.87633C8.06957 0.335735 7.52742 0 6.92235 0C6.92226 0 6.92207 0 6.92188 0C6.31673 9.34155e-05 5.77447 0.336202 5.50682 0.877078L4.22338 3.4701L1.35209 3.88664C0.753213 3.97352 0.26515 4.3838 0.0783055 4.95737C-0.108539 5.53094 0.0445554 6.1486 0.478056 6.56944L2.55641 8.58703L2.06665 11.4368C1.96456 12.0312 2.20531 12.6205 2.69497 12.9748C2.97162 13.1749 3.29506 13.2766 3.62085 13.2765C3.87181 13.2765 4.1241 13.2161 4.35716 13.094L6.92516 11.748L9.49383 13.0927C10.0296 13.3732 10.6665 13.3271 11.1559 12.9726C11.6454 12.6179 11.8858 12.0284 11.7833 11.4341L11.2921 8.5846L13.3693 6.56599C13.8024 6.14496 13.9553 5.5272 13.7682 4.95373ZM9.87136 7.35553C9.49926 7.71686 9.32967 8.23737 9.4177 8.7478L9.83358 11.1601L7.65923 10.0217C7.1992 9.78078 6.64991 9.78088 6.19016 10.022L4.0161 11.1617L4.43066 8.7492C4.51841 8.23896 4.34863 7.71864 3.97635 7.35721L2.21703 5.64911L4.64788 5.29656C5.16191 5.22192 5.6061 4.9002 5.83588 4.43583L6.92245 2.24066L8.01014 4.43518C8.24011 4.89936 8.68439 5.2209 9.1988 5.29535L11.6298 5.64668L9.87136 7.35553Z" fill="#DD3800" fill-opacity="0.6"/>
<path d="M20.1545 22.7121C19.9801 22.5382 19.7384 22.4384 19.4917 22.4384C19.2451 22.4384 19.0033 22.5382 18.8289 22.7121C18.6545 22.8859 18.5542 23.1267 18.5542 23.3725C18.5542 23.6182 18.6545 23.8592 18.8289 24.0329C19.0033 24.2066 19.2451 24.3067 19.4917 24.3067C19.7383 24.3067 19.9801 24.2067 20.1545 24.0329C20.3289 23.8592 20.4292 23.6182 20.4292 23.3725C20.4292 23.1266 20.3289 22.8857 20.1545 22.7121Z" fill="#DD3800" fill-opacity="0.6"/>
</svg>
